Division,WeightClassKg,Place,Name,Team,BodyweightKg,Best3SquatKg,Best3BenchKg,Best3DeadliftKg,TotalKg,Equipment,Event,Sex
Boys,51.71,1,Nathan Jeter,Rockdale,51.71,104.33,63.5,129.27,297.1,Single-ply,SBD,M
Boys,51.71,2,John Sotelo,Stephenville,48.22,102.06,58.97,108.86,269.89,Single-ply,SBD,M
Boys,51.71,3,Luke Talley,Lago Vista,44.54,83.91,47.63,92.99,224.53,Single-ply,SBD,M
Boys,55.79,1,Preston Fox,Lampasas,55.79,136.08,97.52,156.49,390.09,Single-ply,SBD,M
Boys,55.79,2,Luke Keller,Llano,53.61,124.74,61.23,120.2,306.17,Single-ply,SBD,M
Boys,55.79,3,Avery Boundy,Rockdale,55.57,88.45,47.63,95.25,231.33,Single-ply,SBD,M
Boys,55.79,4,Brennan Vollmer,Fredericksburg,54.93,83.91,43.09,99.79,226.8,Single-ply,SBD,M
Boys,55.79,5,Tyler Anglin,Bangs,53.43,58.97,29.48,74.84,163.29,Single-ply,SBD,M
Boys,59.87,1,Kyle Arriola,Lampasas,58.6,136.08,95.25,158.76,390.09,Single-ply,SBD,M
Boys,59.87,2,Jeovanny Navarro,Rockdale,57.65,129.27,90.72,140.61,360.61,Single-ply,SBD,M
Boys,59.87,3,Keshawan Mcelwian,Lampasas,59.83,111.13,83.91,136.08,331.12,Single-ply,SBD,M
Boys,59.87,4,Brandon Sisson,Bangs,58.74,97.52,68.04,142.88,308.44,Single-ply,SBD,M
Boys,67.13,1,Seth Anderson,Bangs,65.91,181.44,108.86,183.7,474,Single-ply,SBD,M
Boys,67.13,2,Ryan Jackson,Burnet,66.04,183.7,115.67,167.83,467.2,Single-ply,SBD,M
Boys,67.13,3,Anthony Seider,Lometa,66.36,158.76,95.25,188.24,442.25,Single-ply,SBD,M
Boys,67.13,4,Major Bowden,Brownwood,66.9,142.88,83.91,154.22,381.02,Single-ply,SBD,M
Boys,67.13,5,Gavin Mudd,Fredericksburg,63.78,124.74,95.25,154.22,374.21,Single-ply,SBD,M
Boys,67.13,6,Uriah King,Brownwood,65.54,136.08,88.45,136.08,360.61,Single-ply,SBD,M
Boys,67.13,7,Caleb Roberts,Burnet,65.54,136.08,74.84,147.42,358.34,Single-ply,SBD,M
Boys,67.13,8,Hayden Chapman,Lago Vista,67.09,142.88,74.84,127.01,344.73,Single-ply,SBD,M
Boys,67.13,9,Jaydon Brandon,Bangs,61.73,120.2,56.7,145.15,322.05,Single-ply,SBD,M
Boys,67.13,10,Emmitt Venable,Llano,61.42,120.2,65.77,129.27,315.25,Single-ply,SBD,M
Boys,67.13,11,Carson Bekker,Lampasas,61.51,113.4,74.84,120.2,308.44,Single-ply,SBD,M
Boys,67.13,12,Cordyn Alderman,Marble Falls,61.14,106.59,81.65,106.59,294.84,Single-ply,SBD,M
Boys,67.13,13,Joseph Botik,Lago Vista,63.73,111.13,61.23,108.86,281.23,Single-ply,SBD,M
Boys,67.13,14,Dj Smart,Lometa,65.23,74.84,61.23,102.06,238.14,Single-ply,SBD,M
Boys,67.13,15,Donnie Smart,Lometa,63.64,74.84,47.63,106.59,229.06,Single-ply,SBD,M
Boys,67.13,DQ,Jacob Miller,Lampasas,67.13,111.13,,,,Single-ply,SBD,M
Boys,67.13,DQ,Fidel Casteneda,Bangs,64.73,142.88,,,,Single-ply,SBD,M
Boys,74.84,1,Jack Jerome,Lampasas,72.21,226.8,142.88,204.12,573.79,Single-ply,SBD,M
Boys,74.84,2,Kolby Allen,Lampasas,74.48,181.44,113.4,183.7,478.54,Single-ply,SBD,M
Boys,74.84,3,Jaxson Denton,Burnet,73.48,165.56,111.13,170.1,446.79,Single-ply,SBD,M
Boys,74.84,4,Lander Chisholm,Lampasas,73.94,172.37,83.91,183.7,439.98,Single-ply,SBD,M
Boys,74.84,5,Brandon Robinson,Bangs,74.84,156.49,95.25,188.24,439.98,Single-ply,SBD,M
Boys,74.84,6,Ismar Gonzales,Lampasas,73.71,151.95,104.33,181.44,437.72,Single-ply,SBD,M
Boys,74.84,7,Joe Maldonado,Marble Falls,74.07,172.37,92.99,172.37,437.72,Single-ply,SBD,M
Boys,74.84,8,Austin Simpson,Fredericksburg,73.48,161.03,97.52,167.83,426.38,Single-ply,SBD,M
Boys,74.84,9,Jason Andrews,Lampasas,70.76,151.95,99.79,170.1,421.84,Single-ply,SBD,M
Boys,74.84,10,Ruben Reyes,Stephenville,72.8,145.15,90.72,156.49,392.36,Single-ply,SBD,M
Boys,74.84,11,Jake Self,Llano,72.89,142.88,99.79,149.69,392.36,Single-ply,SBD,M
Boys,74.84,12,Weston Reid,Lampasas,72.39,138.35,77.11,158.76,374.21,Single-ply,SBD,M
Boys,74.84,13,Jacob Cruz,Llano,74.16,138.35,92.99,142.88,374.21,Single-ply,SBD,M
Boys,74.84,14,Brodee Pack,Stephenville,73.07,124.74,70.31,151.95,347,Single-ply,SBD,M
Boys,74.84,15,William O'Dell,Brownwood,71.4,106.59,102.06,120.2,328.85,Single-ply,SBD,M
Boys,74.84,16,Christian Beall,Lago Vista,69.04,102.06,79.38,133.81,315.25,Single-ply,SBD,M
Boys,82.1,1,Joshua Handley,Fredericksburg,78.79,181.44,136.08,204.12,521.63,Single-ply,SBD,M
Boys,82.1,2,Case Brister,Lampasas,78.56,192.78,106.59,201.85,501.22,Single-ply,SBD,M
Boys,82.1,3,Logan Duggar,Llano,81.19,197.31,97.52,206.38,501.22,Single-ply,SBD,M
Boys,82.1,4,Colby Henry #2,Lometa,79.56,165.56,124.74,195.04,485.34,Single-ply,SBD,M
Boys,82.1,5,Keagan Richardson,Lampasas,79.38,165.56,104.33,172.37,442.25,Single-ply,SBD,M
Boys,82.1,6,James Hogan,Lampasas,81.1,161.03,108.86,172.37,442.25,Single-ply,SBD,M
Boys,82.1,7,Dylan Ahrens,Fredericksburg,79.79,147.42,104.33,181.44,433.18,Single-ply,SBD,M
Boys,82.1,8,Bruce Mayfield,Rockdale,80.51,172.37,99.79,149.69,421.84,Single-ply,SBD,M
Boys,82.1,9,Chris Delgadillo,Burnet,81.19,149.69,83.91,183.7,417.3,Single-ply,SBD,M
Boys,82.1,10,Chris Remaley,Rockdale,79.97,158.76,90.72,161.03,410.5,Single-ply,SBD,M
Boys,82.1,11,Dustin Engdhal,Lampasas,80.56,142.88,83.91,158.76,385.55,Single-ply,SBD,M
Boys,82.1,12,Ethan Sanchez #2,Bangs,81.01,136.08,97.52,149.69,383.29,Single-ply,SBD,M
Boys,82.1,13,Samuel Farrell,Marble Falls,81.74,136.08,90.72,156.49,383.29,Single-ply,SBD,M
Boys,82.1,14,Voice Tuttle,Marble Falls,80.74,133.81,111.13,136.08,381.02,Single-ply,SBD,M
Boys,82.1,15,Alexandro DeLeon,Stephenville,80.65,138.35,86.18,149.69,374.21,Single-ply,SBD,M
Boys,82.1,16,Bryce Govan,Rockdale,75.8,129.27,74.84,136.08,340.19,Single-ply,SBD,M
Boys,82.1,17,Brenden Taylor,Hico,78.06,124.74,74.84,136.08,335.66,Single-ply,SBD,M
Boys,82.1,18,Hayden Aguilar,Rockdale,78.29,104.33,63.5,136.08,303.91,Single-ply,SBD,M
Boys,82.1,DQ,Jaxon Tomme,Lampasas,76.2,113.4,65.77,,,Single-ply,SBD,M
Boys,82.1,DQ,Brigham Grover,Marble Falls,82.05,117.93,,,,Single-ply,SBD,M
Boys,89.81,1,Glenn Thomas,Marble Falls,89.04,226.8,111.13,204.12,542.04,Single-ply,SBD,M
Boys,89.81,2,Grishma Pun,Burnet,83.32,199.58,113.4,192.78,505.76,Single-ply,SBD,M
Boys,89.81,3,Jacob Maldonado,Marble Falls,88.5,183.7,106.59,199.58,489.88,Single-ply,SBD,M
Boys,89.81,4,Gabriel Perez,Marble Falls,84.41,181.44,111.13,183.7,476.27,Single-ply,SBD,M
Boys,89.81,5,Matthew Jordan #3,Snook,84.82,167.83,106.59,167.83,442.25,Single-ply,SBD,M
Boys,89.81,6,Hunter Lawrence,Bangs,84.87,174.63,92.99,174.63,442.25,Single-ply,SBD,M
Boys,89.81,7,Braeden Howell,Burnet,86,158.76,111.13,158.76,428.64,Single-ply,SBD,M
Boys,89.81,8,Jose Vasquez,Marble Falls,89.58,142.88,95.25,183.7,421.84,Single-ply,SBD,M
Boys,89.81,9,Hayden King,Bangs,86.5,149.69,86.18,181.44,417.3,Single-ply,SBD,M
Boys,89.81,10,Gabrian Juarez,Stephenville,85.09,147.42,92.99,174.63,415.04,Single-ply,SBD,M
Boys,89.81,11,Ian McKinney,Lampasas,85.28,165.56,81.65,165.56,412.77,Single-ply,SBD,M
Boys,89.81,12,Charlie Smith,Bangs,89.72,149.69,83.91,172.37,405.97,Single-ply,SBD,M
Boys,89.81,13,Korie Menard,Lampasas,85.73,142.88,102.06,142.88,387.82,Single-ply,SBD,M
Boys,89.81,14,Sokimi Sosa,Lampasas,88.81,151.95,77.11,151.95,381.02,Single-ply,SBD,M
Boys,89.81,15,Avery Smith,Lampasas,85.14,145.15,83.91,149.69,378.75,Single-ply,SBD,M
Boys,89.81,16,Zachary Chavarria,Stephenville,88.81,120.2,81.65,149.69,351.53,Single-ply,SBD,M
Boys,89.81,17,Jesus Chacon,Llano,84.1,136.08,65.77,136.08,337.93,Single-ply,SBD,M
Boys,89.81,18,Dax Lawhon,Lago Vista,85.82,108.86,83.91,102.06,294.84,Single-ply,SBD,M
Boys,89.81,DQ,Austin Hilgenberg,Lampasas,87.32,,,,,Single-ply,SBD,M
Boys,89.81,DQ,Ignacio Felipe,Hico,88.45,99.79,92.99,,,Single-ply,SBD,M
Boys,99.79,1,Issic DeLaCruz,Stephenville,91.58,208.65,145.15,213.19,566.99,Single-ply,SBD,M
Boys,99.79,2,Caleb Smith #9,Stephenville,93.67,181.44,120.2,192.78,494.42,Single-ply,SBD,M
Boys,99.79,3,Owen Seaver,Lampasas,94.98,172.37,136.08,170.1,478.54,Single-ply,SBD,M
Boys,99.79,4,Mason Baker,Llano,93.35,158.76,106.59,185.97,451.32,Single-ply,SBD,M
Boys,99.79,5,Adrian Cervantez,Stephenville,96.25,158.76,102.06,188.24,449.06,Single-ply,SBD,M
Boys,99.79,6,Ethan Pesina,Brownwood,99.29,156.49,102.06,161.03,419.57,Single-ply,SBD,M
Boys,99.79,7,Chris Reyes,Rockdale,93.3,158.76,86.18,158.76,403.7,Single-ply,SBD,M
Boys,99.79,8,Alex Ellison,Rockdale,95.8,147.42,88.45,158.76,394.63,Single-ply,SBD,M
Boys,99.79,9,Colby Monroe,Rockdale,93.58,151.95,88.45,142.88,383.29,Single-ply,SBD,M
Boys,99.79,10,Matthew Kloepper,Llano,90.81,124.74,83.91,122.47,331.12,Single-ply,SBD,M
Boys,99.79,11,Zach Watson,Llano,95.44,106.59,83.91,124.74,315.25,Single-ply,SBD,M
Boys,99.79,DQ,Ethan Rascoe,Lampasas,95.71,,,,,Single-ply,SBD,M
Boys,99.79,DQ,Caleb Brady,Lampasas,98.88,167.83,,,,Single-ply,SBD,M
Boys,109.77,1,Roger Craig,Burnet,109.13,256.28,167.83,240.4,664.51,Single-ply,SBD,M
Boys,109.77,2,Jeremy Rodgers,Lampasas,108,226.8,133.81,244.94,605.55,Single-ply,SBD,M
Boys,109.77,3,Zeke Ibarra,Brownwood,107.73,183.7,129.27,172.37,485.34,Single-ply,SBD,M
Boys,109.77,4,Johnathan Baker,Burnet,109.36,181.44,117.93,183.7,483.08,Single-ply,SBD,M
Boys,109.77,5,Cristian Avilez,Fredericksburg,105.05,167.83,127.01,183.7,478.54,Single-ply,SBD,M
Boys,109.77,6,Karson Zant,Hico,103.65,154.22,83.91,163.29,401.43,Single-ply,SBD,M
Boys,109.77,7,Gavin Aguilar,Rockdale,107.82,151.95,92.99,147.42,392.36,Single-ply,SBD,M
Boys,109.77,8,Josue Paulino,Llano,103.74,149.69,83.91,138.35,371.95,Single-ply,SBD,M
Boys,109.77,9,Matthew Whitley,Llano,105.69,120.2,120.2,131.54,371.95,Single-ply,SBD,M
Boys,124.74,1,Rudy Esparza,Lampasas,110.59,249.48,156.49,249.48,655.44,Single-ply,SBD,M
Boys,124.74,2,Zac Hudgins,Burnet,112.13,247.21,149.69,226.8,623.69,Single-ply,SBD,M
Boys,124.74,3,Griffin Beard,Lago Vista,123.01,235.87,102.06,204.12,542.04,Single-ply,SBD,M
Boys,124.74,4,Adam Murphy,Lampasas,118.3,197.31,131.54,197.31,526.17,Single-ply,SBD,M
Boys,124.74,5,Brad Robinson,Brownwood,111.58,204.12,127.01,158.76,489.88,Single-ply,SBD,M
Boys,124.74,6,Landon West,Fredericksburg,121.15,185.97,92.99,204.12,483.08,Single-ply,SBD,M
Boys,124.74,7,Jaime Herrera,Burnet,116.35,183.7,113.4,179.17,476.27,Single-ply,SBD,M
Boys,124.74,8,Adrian Montano,Stephenville,117.89,183.7,92.99,158.76,435.45,Single-ply,SBD,M
Boys,124.74,9,Logan Davis,Stephenville,120.61,158.76,83.91,181.44,424.11,Single-ply,SBD,M
Boys,124.74,10,Alex Reyna,Brownwood,113.72,165.56,86.18,161.03,412.77,Single-ply,SBD,M
Boys,124.74,DQ,Trey Ivey,Bangs,113.44,147.42,,,,Single-ply,SBD,M
Boys,124.74,DQ,Robert Berrera,Rockdale,124.33,,,,,Single-ply,SBD,M
Boys,124.74+,1,Theo Bryant,Brownwood,131.59,249.48,124.74,204.12,578.33,Single-ply,SBD,M
Boys,124.74+,2,John Long,Lampasas,137.48,217.72,151.95,204.12,573.79,Single-ply,SBD,M
Boys,124.74+,3,Jared Tippie,Burnet,139.93,238.14,131.54,204.12,573.79,Single-ply,SBD,M
Boys,124.74+,4,Carlos Salazar,Brownwood,139.75,172.37,102.06,190.51,464.93,Single-ply,SBD,M
Boys,124.74+,5,Caden Thrift,Lampasas,149.05,142.88,92.99,170.1,405.97,Single-ply,SBD,M
