Division,WeightClassKg,Place,Name,Team,BodyweightKg,Best3SquatKg,Best3BenchKg,Best3DeadliftKg,TotalKg,Equipment,Event,Sex,BirthDate
Boys,51.71,1,Jonothon Dunn,Henrietta,50.35,97.52,,102.06,199.58,Single-ply,SD,M,
Boys,55.79,1,Eric Sikes,Henrietta,55.34,83.91,56.7,113.4,254.01,Single-ply,SBD,M,
Boys,55.79,2,Michael Williams,Henrietta,55.79,122.47,,127.01,249.48,Single-ply,SD,M,
Boys,55.79,3,Karsen Murphy,Henrietta,53.98,47.63,43.09,106.59,197.31,Single-ply,SBD,M,
Boys,67.13,1,Matthew Jimenez,Haskell,66.22,181.44,115.67,190.51,487.61,Single-ply,SBD,M,
Boys,67.13,2,Brayden Tidrow,Haskell,62.14,124.74,56.7,142.88,324.32,Single-ply,SBD,M,
Boys,67.13,3,Gage Gillispie,Archer City,64.41,106.59,79.38,115.67,301.64,Single-ply,SBD,M,
Boys,67.13,4,Jace Jennings,Henrietta,65.77,,,115.67,115.67,Single-ply,D,M,
Boys,74.84,1,Luke Leonard,Haskell,72.57,174.63,102.06,165.56,442.25,Single-ply,SBD,M,
Boys,74.84,2,Brendon Mason,Archer City,72.57,79.38,52.16,92.99,224.53,Single-ply,SBD,M,
Boys,74.84,3,Luke Alexander,Henrietta,69.4,102.06,,,102.06,Single-ply,S,M,
Boys,82.1,1,Artem Brendle,Haskell,78.47,165.56,108.86,174.63,449.06,Single-ply,SBD,M,
Boys,82.1,2,Cooper Wheat,Haskell,81.19,161.03,95.25,163.29,419.57,Single-ply,SBD,M,
Boys,82.1,3,Evan Enriquez,Haskell,80.74,142.88,74.84,140.61,358.34,Single-ply,SBD,M,
Boys,82.1,4,Carson Cody,Henrietta,82.1,165.56,,170.1,335.66,Single-ply,SD,M,
Boys,82.1,5,Cody McMillion,Henrietta,78.47,115.67,,161.03,276.69,Single-ply,SD,M,
Boys,82.1,6,Ty Deaton,Henrietta,80.74,138.35,,,138.35,Single-ply,S,M,
Boys,82.1,NS,Martin Hernandez #4,Haskell,,,,,,Single-ply,SBD,M,
Boys,89.81,1,Luke Peacock,Haskell,88.45,156.49,79.38,170.1,405.97,Single-ply,SBD,M,
Boys,89.81,2,Logan Isbell,Haskell,88,156.49,90.72,142.88,390.09,Single-ply,SBD,M,
Boys,89.81,3,Colton Willett,Haskell,89.81,,,147.42,147.42,Single-ply,D,M,
Boys,99.79,1,Jakob Reed,Henrietta,96.16,183.7,,161.03,344.73,Single-ply,SD,M,
Boys,99.79,2,Will Jetton,Henrietta,93.44,,92.99,,92.99,Single-ply,B,M,
Boys,109.77,1,Dakota Rodriguez,Haskell,107.05,181.44,83.91,204.12,469.47,Single-ply,SBD,M,
Boys,109.77,2,Colby West,Haskell,102.97,142.88,83.91,133.81,360.61,Single-ply,SBD,M,
Boys,139.71+,1,Hilton Murphy,Archer City,190.51,102.06,70.31,115.67,288.03,Single-ply,SBD,M,
Boys,,NS,Dominic Thomas,Archer City,,,,,,Single-ply,SBD,M,
