Division,WeightClassKg,Place,Name,Team,BodyweightKg,Best3SquatKg,Best3BenchKg,Best3DeadliftKg,TotalKg,Equipment,Event,Sex,BirthDate
Boys,55.79,1,Ty Kirkbride,Denison,55.52,172.37,92.99,170.1,435.45,Single-ply,SBD,M,
Boys,55.79,2,Hank Hamilton,Callisburg,54.07,102.06,63.5,117.93,283.5,Single-ply,SBD,M,
Boys,59.87,1,Kyson Lusane,Denison,59.78,179.17,124.74,183.7,487.61,Single-ply,SBD,M,
Boys,59.87,2,Destin Warr,Callisburg,58.33,161.03,102.06,163.29,426.38,Single-ply,SBD,M,
Boys,59.87,3,Joseph Dornstadter,Denison,58.51,65.77,88.45,149.69,303.91,Single-ply,SBD,M,
Boys,59.87,4,Gage Griegar,Collinsville,56.06,74.84,61.23,117.93,254.01,Single-ply,SBD,M,
Boys,67.13,1,Ignacio Salas,Whitesboro,67.13,226.8,131.54,213.19,571.53,Single-ply,SBD,M,
Boys,67.13,2,Weston Hill,Sanger,60.6,201.85,108.86,201.85,512.56,Single-ply,SBD,M,
Boys,67.13,3,Jacob Smith,Whitesboro,67.04,165.56,113.4,188.24,467.2,Single-ply,SBD,M,
Boys,67.13,4,Justin Horst,Sanger,67.13,158.76,81.65,170.1,410.5,Single-ply,SBD,M,
Boys,67.13,5,Suede Wanamaker,Callisburg,66.86,142.88,83.91,145.15,371.95,Single-ply,SBD,M,
Boys,67.13,6,Chase Waller,Tioga,66.5,108.86,77.11,142.88,328.85,Single-ply,SBD,M,
Boys,74.84,1,Clayton Moore,Callisburg,69.76,161.03,88.45,174.63,424.11,Single-ply,SBD,M,
Boys,74.84,2,Brayden Crockett,Whitesboro,70.22,115.67,92.99,172.37,381.02,Single-ply,SBD,M,
Boys,74.84,3,Cooper Evans,Tioga,73.12,147.42,81.65,142.88,371.95,Single-ply,SBD,M,
Boys,82.1,1,Aaron Shafer,Denison,82.05,204.12,124.74,192.78,521.63,Single-ply,SBD,M,
Boys,82.1,2,Noah Stegman,Denison,80.38,167.83,124.74,215.46,508.02,Single-ply,SBD,M,
Boys,82.1,3,Josh Turner,Denison,81.92,170.1,102.06,183.7,455.86,Single-ply,SBD,M,
Boys,82.1,4,Ricky Mejia,Sanger,78.47,170.1,83.91,158.76,412.77,Single-ply,SBD,M,
Boys,82.1,5,Wiley Head,Callisburg,75.39,142.88,88.45,170.1,401.43,Single-ply,SBD,M,
Boys,82.1,6,Aidan Beukema,Sanger,77.93,133.81,86.18,142.88,362.87,Single-ply,SBD,M,
Boys,82.1,7,Jesus Molina,Tioga,80.47,124.74,81.65,149.69,356.07,Single-ply,SBD,M,
Boys,89.81,1,Jeremiah Velton,Whitesboro,87.18,185.97,95.25,208.65,489.88,Single-ply,SBD,M,
Boys,89.81,2,Bryce Johnson #6,Collinsville,88.9,181.44,102.06,176.9,460.4,Single-ply,SBD,M,
Boys,89.81,3,Chase Marcum,Denison,83.37,158.76,102.06,179.17,439.98,Single-ply,SBD,M,
Boys,89.81,4,Cason Serna,Tioga,85.37,145.15,90.72,142.88,378.75,Single-ply,SBD,M,
Boys,99.79,1,Jacob Weir,Callisburg,99.06,204.12,133.81,192.78,530.7,Single-ply,SBD,M,
Boys,99.79,2,Dalton Stanley,Tioga,94.98,199.58,149.69,172.37,521.63,Single-ply,SBD,M,
Boys,99.79,3,Marshall Knowlton,Whitesboro,94.17,149.69,99.79,192.78,442.25,Single-ply,SBD,M,
Boys,99.79,4,Cooper Duce,Denison,98.16,142.88,102.06,188.24,433.18,Single-ply,SBD,M,
Boys,99.79,5,Rowdy Jeffreys,Callisburg,91.81,147.42,90.72,151.95,390.09,Single-ply,SBD,M,
Boys,99.79,6,Manuel Molina,Tioga,99.43,113.4,65.77,131.54,310.71,Single-ply,SBD,M,
Boys,99.79,DQ,Michael Driggers,Sanger,91.99,238.14,111.13,206.38,,Single-ply,SBD,M,
Boys,109.77,1,Connor Markham,Whitesboro,106.05,183.7,106.59,195.04,485.34,Single-ply,SBD,M,
Boys,109.77,2,Caleb Akins,Denison,109.68,149.69,99.79,149.69,399.16,Single-ply,SBD,M,
Boys,109.77,3,Jackson Bridges,Denison,102.42,142.88,88.45,156.49,387.82,Single-ply,SBD,M,
Boys,109.77,DQ,Kyler Henegar,Lindsay,103.33,154.22,108.86,136.08,,Single-ply,SBD,M,
Boys,124.74,1,Noah Roten,Denison,115.76,165.56,129.27,149.69,444.52,Single-ply,SBD,M,
Boys,124.74,DQ,Caden Pelley,Tioga,116.85,188.24,120.2,147.42,,Single-ply,SBD,M,
Boys,139.71,1,Javier Zuniga,Sanger,124.92,219.99,115.67,165.56,501.22,Single-ply,SBD,M,
Boys,139.71,2,Diesel Wanamaker,Callisburg,128.91,190.51,97.52,192.78,480.81,Single-ply,SBD,M,
Boys,139.71,3,Jeff Gonzalez,Collinsville,131.27,156.49,97.52,172.37,426.38,Single-ply,SBD,M,
