Division,WeightClassKg,Place,Name,Team,BodyweightKg,Best3SquatKg,Best3BenchKg,Best3DeadliftKg,TotalKg,Equipment,Event,Sex
Boys,51.71,1,Austin Mullenix,Sadler S & S Cons,51.21,151.95,79.38,149.69,381.02,Single-ply,SBD,M
Boys,51.71,2,James Ramsey,Pottsboro,51.21,136.08,65.77,122.47,324.32,Single-ply,SBD,M
Boys,51.71,3,Hadley Workman,Leonard,51.53,99.79,68.04,111.13,278.96,Single-ply,SBD,M
Boys,51.71,4,Michael Ellis,Nocona,48.04,97.52,56.7,106.59,260.82,Single-ply,SBD,M
Boys,51.71,5,Coleton Beathard,Pilot Point,50.98,108.86,38.56,102.06,249.48,Single-ply,SBD,M
Boys,51.71,6,Jimmy Rollins,Van Alstyne,49.67,90.72,43.09,102.06,235.87,Single-ply,SBD,M
Boys,51.71,7,Corden Moore,Ponder,44.81,90.72,43.09,86.18,219.99,Single-ply,SBD,M
Boys,51.71,8,Raleigh Calvert,Sunnyvale,50.17,81.65,34.02,95.25,210.92,Single-ply,SBD,M
Boys,51.71,9,Jimmy Esparza,Pottsboro,50.62,72.57,45.36,81.65,199.58,Single-ply,SBD,M
Boys,51.71,10,Bryar Skelton,Pilot Point,45.95,72.57,43.09,81.65,197.31,Single-ply,SBD,M
Boys,55.79,1,Mario Giron,Pilot Point,55.66,181.44,97.52,174.63,453.59,Single-ply,SBD,M
Boys,55.79,2,Justin Wilson #3,Bowie,54.25,163.29,83.91,174.63,421.84,Single-ply,SBD,M
Boys,55.79,3,Carlos Villanueva,Strawn,55.25,158.76,81.65,151.95,392.36,Single-ply,SBD,M
Boys,55.79,4,Justin Christensen,Alvord,55.02,158.76,77.11,147.42,383.29,Single-ply,SBD,M
Boys,55.79,5,Dax Irvin,Pottsboro,54.16,147.42,81.65,145.15,374.21,Single-ply,SBD,M
Boys,55.79,6,Rogelio Arce,Olney,54.84,140.61,79.38,129.27,349.27,Single-ply,SBD,M
Boys,55.79,7,Preston Booker,Honey Grove,54.07,145.15,61.23,140.61,347,Single-ply,SBD,M
Boys,55.79,8,Chase Barnett,Howe,55.02,124.74,68.04,145.15,337.93,Single-ply,SBD,M
Boys,55.79,9,Caleb Floyd,Gordon,55.75,136.08,58.97,140.61,335.66,Single-ply,SBD,M
Boys,55.79,10,Finlee Rudicile,Farmersville,55.57,117.93,79.38,136.08,333.39,Single-ply,SBD,M
Boys,55.79,11,Daniel Perez,Olney,55.25,124.74,63.5,129.27,317.51,Single-ply,SBD,M
Boys,55.79,12,Lance Jones,Van Alstyne,55.29,117.93,61.23,136.08,315.25,Single-ply,SBD,M
Boys,59.87,1,Luis Gonzalez,Wichita Falls City View,59.15,190.51,102.06,185.97,478.54,Single-ply,SBD,M
Boys,59.87,2,Caleb McWhorter,Wichita Falls City View,59.83,174.63,70.31,192.78,437.72,Single-ply,SBD,M
Boys,59.87,3,Kyle Reed,Wichita Falls City View,58.74,172.37,74.84,174.63,421.84,Single-ply,SBD,M
Boys,59.87,4,Franklin Lopez,Millsap,59.1,179.17,81.65,161.03,421.84,Single-ply,SBD,M
Boys,59.87,5,Adam Cunningham,Pottsboro,59.87,170.1,90.72,158.76,419.57,Single-ply,SBD,M
Boys,59.87,6,Juan Mares,Bowie,56.84,167.83,97.52,149.69,415.04,Single-ply,SBD,M
Boys,59.87,7,Josh Gorospe,Sunnyvale,59.65,154.22,68.04,181.44,403.7,Single-ply,SBD,M
Boys,59.87,8,Eli Ersch,Pottsboro,58.24,149.69,86.18,158.76,394.63,Single-ply,SBD,M
Boys,59.87,9,Enrique Colmenero,Pilot Point,59.38,149.69,63.5,158.76,371.95,Single-ply,SBD,M
Boys,59.87,10,Travis Bishop,Blue Ridge,58.51,129.27,79.38,142.88,351.53,Single-ply,SBD,M
Boys,59.87,DQ,Aaron Nelson,Honey Grove,58.65,,,,,Single-ply,SBD,M
Boys,59.87,DQ,Wyatt Reeves,Paradise,59.87,140.61,79.38,,,Single-ply,SBD,M
Boys,67.13,1,Jeremiah Brian,Leonard,66.59,204.12,120.2,208.65,532.97,Single-ply,SBD,M
Boys,67.13,2,Wyat Burrows,Olney,65.59,206.38,95.25,226.8,528.44,Single-ply,SBD,M
Boys,67.13,3,Tuan Hoang,Wichita Falls City View,66.54,208.65,106.59,190.51,505.76,Single-ply,SBD,M
Boys,67.13,4,Jeremiah Devereaux,Pilot Point,65.27,176.9,108.86,199.58,485.34,Single-ply,SBD,M
Boys,67.13,5,Darius Jones #1,Dallas Life Oak Cliff,64.27,167.83,90.72,199.58,458.13,Single-ply,SBD,M
Boys,67.13,6,Jay Rogers,Bowie,64.32,179.17,90.72,176.9,446.79,Single-ply,SBD,M
Boys,67.13,7,John Marquez,Perrin-Whitt,65.59,172.37,92.99,181.44,446.79,Single-ply,SBD,M
Boys,67.13,8,Diego Martinez,Pilot Point,66,167.83,86.18,174.63,428.64,Single-ply,SBD,M
Boys,67.13,9,James Cyr,Whitewright,62.87,149.69,99.79,174.63,424.11,Single-ply,SBD,M
Boys,67.13,10,Javier Garcia #3,Pottsboro,66.09,149.69,90.72,172.37,412.77,Single-ply,SBD,M
Boys,67.13,DQ,Shaun Hudson,Callisburg,64.91,,,,,Single-ply,SBD,M
Boys,67.13,DQ,David Colmenero,Pilot Point,66.77,190.51,88.45,,,Single-ply,SBD,M
Boys,74.84,1,Danny Ho,Wichita Falls City View,73.39,251.74,147.42,238.14,637.3,Single-ply,SBD,M
Boys,74.84,2,Spencer Wright,Leonard,73.3,254.01,145.15,204.12,603.28,Single-ply,SBD,M
Boys,74.84,3,Cody Coldwell,Sunnyvale,74.43,231.33,115.67,215.46,562.45,Single-ply,SBD,M
Boys,74.84,4,Josh Wells #2,Jacksboro,74.16,197.31,129.27,233.6,560.19,Single-ply,SBD,M
Boys,74.84,5,Chance Tomlinson,Bowie,71.4,215.46,129.27,213.19,557.92,Single-ply,SBD,M
Boys,74.84,6,Matthew Gray #2,Brock,68.72,208.65,99.79,226.8,535.24,Single-ply,SBD,M
Boys,74.84,7,Skylar Collier,Brock,70.49,206.38,95.25,215.46,517.1,Single-ply,SBD,M
Boys,74.84,8,Joseph Brennan,Howe,72.03,199.58,104.33,204.12,508.02,Single-ply,SBD,M
Boys,74.84,9,Jaden Matthews,Howe,73.03,208.65,111.13,185.97,505.76,Single-ply,SBD,M
Boys,74.84,10,Trevor Coglon,Bells,74.12,176.9,127.01,195.04,498.95,Single-ply,SBD,M
Boys,74.84,11,Jonah Maston,Santo,73.44,190.51,108.86,181.44,480.81,Single-ply,SBD,M
Boys,74.84,12,Ivan Ruiz,Strawn,73.57,181.44,102.06,170.1,453.59,Single-ply,SBD,M
Boys,82.1,1,Tanner Hartsfield,Howe,81.65,231.33,140.61,238.14,610.08,Single-ply,SBD,M
Boys,82.1,2,Michael Hymel,Howe,79.42,222.26,138.35,238.14,598.74,Single-ply,SBD,M
Boys,82.1,3,Taylor Barrett,Pilot Point,76.11,219.99,133.81,229.06,582.87,Single-ply,SBD,M
Boys,82.1,4,Noah Maston,Santo,79.74,222.26,129.27,204.12,555.65,Single-ply,SBD,M
Boys,82.1,5,Seth Alston,Santo,79.7,233.6,102.06,210.92,546.58,Single-ply,SBD,M
Boys,82.1,6,Gavin Clark,Whitewright,77.97,190.51,138.35,204.12,532.97,Single-ply,SBD,M
Boys,82.1,7,Colt Gallaway,Pilot Point,75.66,192.78,136.08,199.58,528.44,Single-ply,SBD,M
Boys,82.1,8,Zackary Otto,Bowie,80.51,222.26,113.4,188.24,523.9,Single-ply,SBD,M
Boys,82.1,9,Lane Upton,Paradise,82.1,188.24,120.2,188.24,496.68,Single-ply,SBD,M
Boys,82.1,10,Rickey Bottorff,Millsap,80.56,174.63,99.79,188.24,462.66,Single-ply,SBD,M
Boys,82.1,11,Brandon Perdue #2,Gunter,81.28,172.37,113.4,172.37,458.13,Single-ply,SBD,M
Boys,82.1,12,Micah Henson,Pilot Point,74.98,163.29,90.72,195.04,449.06,Single-ply,SBD,M
Boys,89.81,1,Ronnie Hart,Leonard,88.09,215.46,147.42,240.4,603.28,Single-ply,SBD,M
Boys,89.81,2,Destin Montelongo,Santo,82.15,235.87,140.61,213.19,589.67,Single-ply,SBD,M
Boys,89.81,3,John Cooper,Whitewright,89.27,206.38,113.4,240.4,560.19,Single-ply,SBD,M
Boys,89.81,4,Antonio Puga,Pilot Point,82.87,213.19,120.2,219.99,553.38,Single-ply,SBD,M
Boys,89.81,5,Cole Schkade,Santo,83.42,219.99,117.93,204.12,542.04,Single-ply,SBD,M
Boys,89.81,6,Dylan Robertson,Pottsboro,86.14,215.46,131.54,188.24,535.24,Single-ply,SBD,M
Boys,89.81,7,Tanner Young,Leonard,87.54,204.12,115.67,208.65,528.44,Single-ply,SBD,M
Boys,89.81,8,Tate Swearengin,Brock,82.42,181.44,136.08,204.12,521.63,Single-ply,SBD,M
Boys,89.81,9,Brian Hernandez,Olney,83.37,210.92,117.93,192.78,521.63,Single-ply,SBD,M
Boys,89.81,10,Bridger Skogberg,Paradise,87.41,215.46,111.13,195.04,521.63,Single-ply,SBD,M
Boys,89.81,11,Lorenzo Romo,Paradise,84.5,204.12,129.27,183.7,517.1,Single-ply,SBD,M
Boys,89.81,DQ,Erik Delao,Bowie,86,222.26,124.74,,,Single-ply,SBD,M
Boys,89.81,DQ,Brandon Murphy,Whitesboro,87.41,233.6,,,,Single-ply,SBD,M
Boys,89.81,DQ,Lucas Ramsey,Perrin-Whitt,89.77,254.01,145.15,,,Single-ply,SBD,M
Boys,99.79,1,Tristan Dennison,Bowie,95.35,276.69,145.15,238.14,659.98,Single-ply,SBD,M
Boys,99.79,2,Tristan Barbare,Perrin-Whitt,98.29,258.55,140.61,238.14,637.3,Single-ply,SBD,M
Boys,99.79,3,Raymond Carrasco,Olney,97.61,272.16,136.08,226.8,635.03,Single-ply,SBD,M
Boys,99.79,4,Cruz Montes,Boyd,98.57,231.33,151.95,190.51,573.79,Single-ply,SBD,M
Boys,99.79,5,Ezequiel Trejo,Pilot Point,91.49,224.53,115.67,226.8,566.99,Single-ply,SBD,M
Boys,99.79,6,Bryan Bunger,Sunnyvale,94.62,235.87,136.08,192.78,564.72,Single-ply,SBD,M
Boys,99.79,7,Chase Harvey,Howe,93.62,204.12,136.08,213.19,553.38,Single-ply,SBD,M
Boys,99.79,8,Edgar Rodea,Gordon,92.17,231.33,138.35,181.44,551.11,Single-ply,SBD,M
Boys,99.79,9,Tre Rose,Brock,97.34,226.8,117.93,204.12,548.85,Single-ply,SBD,M
Boys,99.79,10,Kylar Pendergraft,Nocona,93.39,217.72,104.33,197.31,519.36,Single-ply,SBD,M
Boys,99.79,11,Colton Vibbert,Leonard,93.39,217.72,117.93,181.44,517.1,Single-ply,SBD,M
Boys,99.79,DQ,Colby Hammond,Callisburg,95.35,215.46,90.72,,,Single-ply,SBD,M
Boys,109.77,1,Austin Coker,Santo,107.64,283.5,145.15,231.33,659.98,Single-ply,SBD,M
Boys,109.77,2,Jacob Taylor,Bells,109.27,256.28,156.49,206.38,619.15,Single-ply,SBD,M
Boys,109.77,3,Hudson Barnes,Leonard,107.27,231.33,158.76,217.72,607.81,Single-ply,SBD,M
Boys,109.77,4,Taylor Colley,Petrolia,105.64,233.6,142.88,213.19,589.67,Single-ply,SBD,M
Boys,109.77,5,Jared Richardson,Paradise,108.77,213.19,129.27,233.6,576.06,Single-ply,SBD,M
Boys,109.77,6,Alex Silva,Boyd,106.32,217.72,115.67,208.65,542.04,Single-ply,SBD,M
Boys,109.77,7,Colten Enloe,Gunter,108.27,208.65,136.08,197.31,542.04,Single-ply,SBD,M
Boys,109.77,8,Ian Enderby,Callisburg,103.83,201.85,131.54,204.12,537.51,Single-ply,SBD,M
Boys,109.77,9,Julio Sanchez #2,Brock,103.69,195.04,124.74,215.46,535.24,Single-ply,SBD,M
Boys,109.77,10,Anthony Coker,Santo,103.42,204.12,124.74,201.85,530.7,Single-ply,SBD,M
Boys,109.77,11,Alec Narro,Tom Bean,106.23,206.38,131.54,192.78,530.7,Single-ply,SBD,M
Boys,109.77,12,Dakota Armstrong,Perrin-Whitt,104.64,222.26,117.93,188.24,528.44,Single-ply,SBD,M
Boys,109.77,13,Chris Garrison,Howe,101.83,195.04,124.74,176.9,496.68,Single-ply,SBD,M
Boys,109.77,DQ,Jacob Flores,Strawn,107.05,,,,,Single-ply,SBD,M
Boys,124.74,1,Blake Martin,Alvord,114.53,294.84,172.37,217.72,684.92,Single-ply,SBD,M
Boys,124.74,2,Cody Holaway,Paradise,112.58,254.01,138.35,240.4,632.76,Single-ply,SBD,M
Boys,124.74,3,Esteban Cervantes,Valley View,114.89,244.94,122.47,231.33,598.74,Single-ply,SBD,M
Boys,124.74,4,Levi Henry,Callisburg,116.62,249.48,136.08,213.19,598.74,Single-ply,SBD,M
Boys,124.74,5,JP Sales,Sunnyvale,116.26,249.48,115.67,231.33,596.47,Single-ply,SBD,M
Boys,124.74,6,Fletcher Six,Nocona,110.36,226.8,127.01,219.99,573.79,Single-ply,SBD,M
Boys,124.74,7,Jayden Workman,Electra,116.8,219.99,142.88,181.44,544.31,Single-ply,SBD,M
Boys,124.74,8,Zach Brown #4,Alvord,120.29,213.19,131.54,188.24,532.97,Single-ply,SBD,M
Boys,124.74,9,Reese Greenwood,Pottsboro,114.21,222.26,122.47,181.44,526.17,Single-ply,SBD,M
Boys,124.74,10,Adam Aldridge,Honey Grove,115.3,195.04,113.4,181.44,489.88,Single-ply,SBD,M
Boys,124.74,11,KC Rater,Jacksboro,117.66,174.63,104.33,158.76,437.72,Single-ply,SBD,M
Boys,124.74,DQ,Deuce Glasker,Nocona,110.68,172.37,106.59,,,Single-ply,SBD,M
Boys,124.74+,1,Carlos Giron,Pilot Point,139.25,328.85,183.7,258.55,771.11,Single-ply,SBD,M
Boys,124.74+,2,Kayl Powers,Collinsville,145.83,233.6,147.42,258.55,639.57,Single-ply,SBD,M
Boys,124.74+,3,Tyler Yeck,Ponder,154.72,272.16,127.01,226.8,625.96,Single-ply,SBD,M
Boys,124.74+,4,Dominic Little,Whitewright,132.04,260.82,151.95,199.58,612.35,Single-ply,SBD,M
Boys,124.74+,5,Ethan Price,Honey Grove,148.6,235.87,115.67,219.99,571.53,Single-ply,SBD,M
Boys,124.74+,6,John Brunner #2,Brock,137.62,226.8,136.08,199.58,562.45,Single-ply,SBD,M
Boys,124.74+,7,Marcus Alexander,Sunnyvale,128.32,199.58,127.01,226.8,553.38,Single-ply,SBD,M
Boys,124.74+,8,Mason McCall,Pottsboro,134.94,229.06,129.27,181.44,539.77,Single-ply,SBD,M
Boys,124.74+,9,Quintana Reyes,Pilot Point,146.15,204.12,142.88,174.63,521.63,Single-ply,SBD,M
Boys,124.74+,10,Jobin Chirayil,Sunnyvale,130.23,201.85,136.08,172.37,510.29,Single-ply,SBD,M
Boys,124.74+,11,Koby Williams,Pottsboro,130.45,192.78,131.54,181.44,505.76,Single-ply,SBD,M
Boys,124.74+,DQ,Tyler Wagner,Ponder,140.84,,,,,Single-ply,SBD,M
